Project 2
…
##   (Intercept) in_state_total_c mid_career_pay_c
## 1   0.3308659     1.937307e-05     2.365051e-05
##   in_state_total_c:mid_career_pay_c
## 1                      1.001487e-09

5 Logistic Regression

First, a variable named binmidcareer was formed to form a binary variable in which 1 correlates to higher than the mean mid-career pay, and 0 correlates to lower than the mean mid-career pay. Then, a logistic regression was run to see if in-state total costs and the percentage of alumni who feel they make the world a better place could predict this new variable binmidcareer. Controlling for the make world better percent, for every one increase in in-state total cost the odds of being in the higher mid-career pay group increase by a factor of 1.0000498. Controlling for the in-state total cost variable, for every one increase in makes world better percent will decrease the odds of being in the higher binmidcareer group by a factor of 0.9332300. The odds of being in the higher mid-career pay group at the average in-state total cost and makes world better percent are 0.6040845.

logit<-function(p)log(odds(p))
tut1$binmidcareer <- ifelse(tut1$mid_career_pay>mean(tut1$mid_career_pay),1,0)
tut1<-tut1%>%select(-name,-state,-state_code,-state_name)
tut1

## # A tibble: 669 x 17
##    type  degree_length room_and_board in_state_tuition in_state_total
##    <chr> <chr>                  <dbl>            <dbl>          <dbl>
##  1 Publ… 4 Year                  8782             9440          18222
##  2 Priv… 4 Year                  4200            15150          19350
##  3 Priv… 4 Year                 12330            41160          53490
##  4 Publ… 4 Year                  5422            11068          16490
##  5 Priv… 4 Year                  7300            20830          28130
##  6 Priv… 4 Year                 10920            35105          46025
##  7 Priv… 4 Year                 13200            32060          45260
##  8 Priv… 4 Year                 12380            45775          58155
##  9 Publ… 4 Year                  9608             7144          16752
## 10 Priv… 4 Year                 10998            40258          51256
## # … with 659 more rows, and 12 more variables: out_of_state_tuition <dbl>,
## #   out_of_state_total <dbl>, rank <dbl>, early_career_pay <dbl>,
## #   mid_career_pay <dbl>, make_world_better_percent <dbl>, stem_percent <dbl>,
## #   high_early_pay <chr>, in_state_total_c <dbl>, mid_career_pay_c <dbl>,
## #   make_world_better_percent_c <dbl>, binmidcareer <dbl>
…
calc_auc(ROCplot)

##   PANEL group       AUC
## 1     1    -1 0.7807228

6Full Logistic Regression

Here, all variables that could possibly be used to predict the variable binmidcareer, which either shows colleges in the top or bottom half of mid-career pay. The fitted model showed an accuracy of 0.9730942, the sensitivity (or true positive rate) is 0.9602888, the specificity (or true negative rate) is 0.9821429, the precision (or percent of positives correctly predicted) is 0.974359, and the AUC is 0.996307. All these measures seem to show that the model is a very accurate predictor of binmidcareer.

tut1

## # A tibble: 669 x 20
##    type  degree_length room_and_board in_state_tuition in_state_total
##    <chr> <chr>                  <dbl>            <dbl>          <dbl>
##  1 Publ… 4 Year                  8782             9440          18222
##  2 Priv… 4 Year                  4200            15150          19350
##  3 Priv… 4 Year                 12330            41160          53490
##  4 Publ… 4 Year                  5422            11068          16490
##  5 Priv… 4 Year                  7300            20830          28130
##  6 Priv… 4 Year                 10920            35105          46025
##  7 Priv… 4 Year                 13200            32060          45260
##  8 Priv… 4 Year                 12380            45775          58155
##  9 Publ… 4 Year                  9608             7144          16752
## 10 Priv… 4 Year                 10998            40258          51256
## # … with 659 more rows, and 15 more variables: out_of_state_tuition <dbl>,
## #   out_of_state_total <dbl>, rank <dbl>, early_career_pay <dbl>,
## #   mid_career_pay <dbl>, make_world_better_percent <dbl>, stem_percent <dbl>,
## #   high_early_pay <chr>, in_state_total_c <dbl>, mid_career_pay_c <dbl>,
## #   make_world_better_percent_c <dbl>, binmidcareer <dbl>, logit <dbl>,
## #   prob <dbl>, predicted <chr>

tut2<-tut1%>%select(-mid_career_pay,-mid_career_pay_c,-high_early_pay,-in_state_total_c,-make_world_better_percent_c,-prob,-predicted,-degree_length,-in_state_total,-out_of_state_total)
tut2

## # A tibble: 669 x 10
##    type  room_and_board in_state_tuition out_of_state_tu…  rank early_career_pay
##    <chr>          <dbl>            <dbl>            <dbl> <dbl>            <dbl>
##  1 Publ…           8782             9440            20456    16            44400
##  2 Priv…           4200            15150            15150    14            51600
##  3 Priv…          12330            41160            41160    14            46000
##  4 Publ…           5422            11068            19396    20            39800
##  5 Priv…           7300            20830            20830     3            50300
##  6 Priv…          10920            35105            35105     1            81000
##  7 Priv…          13200            32060            32060    18            49700
##  8 Priv…          12380            45775            45775     7            52100
##  9 Publ…           9608             7144             7144    10            40900
## 10 Priv…          10998            40258            40258    15            48400
## # … with 659 more rows, and 4 more variables: make_world_better_percent <dbl>,
## #   stem_percent <dbl>, binmidcareer <dbl>, logit <dbl>
…
